{
  "datum": {
    "id": "gdwc-menu",
    "template": "@example_components/gdwc-menu.html.twig"
  },
  "schema": {
    "title": "Menu",
    "type": "object",
    "required": [
      "baseUrl",
      "menuId"
    ],
    "properties": {
      "baseUrl": {
        "type": "string",
        "format": "uri",
        "title": "Base url",
        "description": "Base URL of menu endpoint",
        "default": "https://dev-ds-demo.pantheonsite.io"
      },
      "menuId": {
        "type": "string",
        "title": "Menu id",
        "description": "Machine name of menu",
        "default": "main"
      },
      "branding": {
        "type": "string",
        "title": "Branding",
        "description": "Branding heading for the menu"
      },
      "loadingMessage": {
        "type": "string",
        "title": "Loading message",
        "description": "Loading message"
      },
      "theme": {
        "type": "string",
        "title": "Theme",
        "description": "Theme to trigger alternate menu presentations",
        "default": "default",
        "enum": [
          "default",
          "theme1",
          "theme2"
        ],
        "enumNames": [
          "Default",
          "Theme 1",
          "Theme 2"
        ]
      }
    }
  },
  "uiSchema": {  },
  "renderPreprocess": {  }
}
